simulation/qsim/ALU_PROJECT.msim.vcd
$comment
	File created using the following command:
		vcd file ALU_PROJECT.msim.vcd -direction
$end
$date
	Wed Dec 09 10:28:50 2020
$end
$version
	ModelSim Version 10.1d
$end
$timescale
	1ps
$end
$scope module ALU_DESIGN_vlg_vec_tst $end
$var reg 16 ! iA [15:0] $end
$var reg 3 " iAluOpcode [2:0] $end
$var reg 16 # iB [15:0] $end
$var reg 1 $ iClock $end
$var reg 3 % iRegACommand [2:0] $end
$var reg 3 & iRegBCommand [2:0] $end
$var wire 1 ' nCarryflagout $end
$var wire 1 ( nZeroflagout $end
$var wire 1 ) oAccumulator [15] $end
$var wire 1 * oAccumulator [14] $end
$var wire 1 + oAccumulator [13] $end
$var wire 1 , oAccumulator [12] $end
$var wire 1 - oAccumulator [11] $end
$var wire 1 . oAccumulator [10] $end
$var wire 1 / oAccumulator [9] $end
$var wire 1 0 oAccumulator [8] $end
$var wire 1 1 oAccumulator [7] $end
$var wire 1 2 oAccumulator [6] $end
$var wire 1 3 oAccumulator [5] $end
$var wire 1 4 oAccumulator [4] $end
$var wire 1 5 oAccumulator [3] $end
$var wire 1 6 oAccumulator [2] $end
$var wire 1 7 oAccumulator [1] $end
$var wire 1 8 oAccumulator [0] $end
$var wire 1 9 sampler $end
$scope module i1 $end
$var wire 1 : gnd $end
$var wire 1 ; vcc $end
$var wire 1 < unknown $end
$var tri1 1 = devclrn $end
$var tri1 1 > devpor $end
$var tri1 1 ? devoe $end
$var wire 1 @ ALU_BLOCK|arith_unit|Equal1~0_combout $end
$var wire 1 A ALU_BLOCK|arith_unit|bit16Adder|forlooping[8].Fulladder|OR_0~0_combout $end
$var wire 1 B ALU_BLOCK|logic_unit|oX[13]~27_combout $end
$var wire 1 C ALU_BLOCK|arith_unit|bit16Adder|forlooping[12].Fulladder|OR_0~1_combout $end
$var wire 1 D REGA_BLOCK|oQ~2_combout $end
$var wire 1 E REGB_BLOCK|oQ~3_combout $end
$var wire 1 F ALU_BLOCK|nZeroflagin~0_combout $end
$var wire 1 G ALU_BLOCK|nZeroflagin~6_combout $end
$var wire 1 H ALU_BLOCK|nZeroflagin~7_combout $end
$var wire 1 I REGA_BLOCK|oQ[15]~1_combout $end
$var wire 1 J REGA_BLOCK|oQ~5_combout $end
$var wire 1 K REGB_BLOCK|oQ~6_combout $end
$var wire 1 L REGB_BLOCK|oQ~8_combout $end
$var wire 1 M REGA_BLOCK|oQ~8_combout $end
$var wire 1 N ALU_BLOCK|arith_unit|bit16Adder|forlooping[12].Fulladder|OR_0~0_combout $end
$var wire 1 O REGA_BLOCK|oQ~7_combout $end
$var wire 1 P REGB_BLOCK|oQ~9_combout $end
$var wire 1 Q REGB_BLOCK|oQ~10_combout $end
$var wire 1 R REGA_BLOCK|oQ~11_combout $end
$var wire 1 S REGB_BLOCK|oQ~11_combout $end
$var wire 1 T REGB_BLOCK|oQ~12_combout $end
$var wire 1 U REGA_BLOCK|oQ~12_combout $end
$var wire 1 V ALU_BLOCK|arith_unit|bit16Adder|forlooping[8].Fulladder|OR_0~1_combout $end
$var wire 1 W REGA_BLOCK|oQ~14_combout $end
$var wire 1 X REGB_BLOCK|oQ~14_combout $end
$var wire 1 Y REGB_BLOCK|oQ~15_combout $end
$var wire 1 Z REGA_BLOCK|oQ~15_combout $end
$var wire 1 [ REGA_BLOCK|oQ~16_combout $end
$var wire 1 \ REGA_BLOCK|oQ~17_combout $end
$var wire 1 ] REGB_BLOCK|oQ~18_combout $end
$var wire 1 ^ REGA_BLOCK|oQ~18_combout $end
$var wire 1 _ ALU_BLOCK|arith_unit|bit16Adder|forlooping[2].Fulladder|OR_0~0_combout $end
$var wire 1 ` REGB_BLOCK|oQ~19_combout $end
$var wire 1 a ALU_BLOCK|arith_unit|bit16Adder|forlooping[2].Fulladder|OR_0~1_combout $end
$var wire 1 b REGB_BLOCK|oQ~2_combout $end
$var wire 1 c REGB_BLOCK|oQ[0]~0_combout $end
$var wire 1 d REGB_BLOCK|oQ~4_combout $end
$var wire 1 e REGA_BLOCK|oQ~3_combout $end
$var wire 1 f REGA_BLOCK|oQ[0]~0_combout $end
$var wire 1 g REGA_BLOCK|oQ~4_combout $end
$var wire 1 h ALU_BLOCK|arith_unit|bit16Adder|forlooping[0].Fulladder|OR_0~0_combout $end
$var wire 1 i ALU_BLOCK|arith_unit|bit16Adder|forlooping[2].Fulladder|OR_0~2_combout $end
$var wire 1 j ALU_BLOCK|arith_unit|bit16Adder|forlooping[3].Fulladder|OR_0~0_combout $end
$var wire 1 k ALU_BLOCK|arith_unit|bit16Adder|forlooping[4].Fulladder|OR_0~0_combout $end
$var wire 1 l ALU_BLOCK|arith_unit|bit16Adder|forlooping[5].Fulladder|OR_0~0_combout $end
$var wire 1 m ALU_BLOCK|arith_unit|bit16Adder|forlooping[6].Fulladder|OR_0~0_combout $end
$var wire 1 n REGB_BLOCK|oQ~13_combout $end
$var wire 1 o ALU_BLOCK|arith_unit|bit16Adder|forlooping[8].Fulladder|OR_0~2_combout $end
$var wire 1 p ALU_BLOCK|arith_unit|bit16Adder|forlooping[9].Fulladder|OR_0~0_combout $end
$var wire 1 q ALU_BLOCK|arith_unit|bit16Adder|forlooping[10].Fulladder|OR_0~0_combout $end
$var wire 1 r REGA_BLOCK|oQ~9_combout $end
$var wire 1 s ALU_BLOCK|arith_unit|bit16Adder|forlooping[12].Fulladder|OR_0~2_combout $end
$var wire 1 t ALU_BLOCK|arith_unit|bit16Adder|forlooping[13].Fulladder|OR_0~0_combout $end
$var wire 1 u ALU_BLOCK|arith_unit|bit16Adder|forlooping[14].Fulladder|OR_0~0_combout $end
$var wire 1 v ALU_BLOCK|arith_unit|bit16Adder|forlooping[15].Fulladder|OR_0~0_combout $end
$var wire 1 w ALU_BLOCK|arith_unit|NOR_resetpin~combout $end
$var wire 1 x ALU_BLOCK|arith_unit|Carryflag|oQ~regout $end
$var wire 1 y ALU_BLOCK|arith_unit|nAdderCin~combout $end
$var wire 1 z REGB_BLOCK|oQ[15]~1_combout $end
$var wire 1 { REGB_BLOCK|oQ~5_combout $end
$var wire 1 | REGA_BLOCK|oQ~13_combout $end
$var wire 1 } REGB_BLOCK|oQ~16_combout $end
$var wire 1 ~ ALU_BLOCK|arith_unit|LessThan0~1_cout $end
$var wire 1 !! ALU_BLOCK|arith_unit|LessThan0~3_cout $end
$var wire 1 "! ALU_BLOCK|arith_unit|LessThan0~5_cout $end
$var wire 1 #! ALU_BLOCK|arith_unit|LessThan0~7_cout $end
$var wire 1 $! ALU_BLOCK|arith_unit|LessThan0~9_cout $end
$var wire 1 %! ALU_BLOCK|arith_unit|LessThan0~11_cout $end
$var wire 1 &! ALU_BLOCK|arith_unit|LessThan0~13_cout $end
$var wire 1 '! ALU_BLOCK|arith_unit|LessThan0~15_cout $end
$var wire 1 (! ALU_BLOCK|arith_unit|LessThan0~17_cout $end
$var wire 1 )! ALU_BLOCK|arith_unit|LessThan0~19_cout $end
$var wire 1 *! ALU_BLOCK|arith_unit|LessThan0~21_cout $end
$var wire 1 +! ALU_BLOCK|arith_unit|LessThan0~23_cout $end
$var wire 1 ,! ALU_BLOCK|arith_unit|LessThan0~25_cout $end
$var wire 1 -! ALU_BLOCK|arith_unit|LessThan0~27_cout $end
$var wire 1 .! ALU_BLOCK|arith_unit|LessThan0~29_cout $end
$var wire 1 /! ALU_BLOCK|arith_unit|LessThan0~30_combout $end
$var wire 1 0! ALU_BLOCK|logic_unit|XORgate|oX[0]~0_combout $end
$var wire 1 1! ALU_BLOCK|arith_unit|oAccumulator[0]~10_combout $end
$var wire 1 2! ALU_BLOCK|LessThan0~0_combout $end
$var wire 1 3! ALU_BLOCK|logic_unit|oX[15]~0_combout $end
$var wire 1 4! ALU_BLOCK|logic_unit|oX[0]~1_combout $end
$var wire 1 5! ALU_BLOCK|logic_unit|oX[0]~2_combout $end
$var wire 1 6! ALU_BLOCK|oAccumulator[0]~0_combout $end
$var wire 1 7! ALU_BLOCK|arith_unit|Equal0~0_combout $end
$var wire 1 8! ALU_BLOCK|arith_unit|oAccumulator[1]~11_combout $end
$var wire 1 9! REGA_BLOCK|oQ~19_combout $end
$var wire 1 :! ALU_BLOCK|arith_unit|bit16subtracter|forlooping[1].Fullsubtracter|Halfsubtracter|oDiff~combout $end
$var wire 1 ;! ALU_BLOCK|arith_unit|oAccumulator[1]~12_combout $end
$var wire 1 <! ALU_BLOCK|logic_unit|oX[1]~3_combout $end
$var wire 1 =! ALU_BLOCK|logic_unit|XORgate|oX[1]~1_combout $end
$var wire 1 >! ALU_BLOCK|logic_unit|oX[1]~4_combout $end
$var wire 1 ?! ALU_BLOCK|oAccumulator[1]~1_combout $end
$var wire 1 @! ALU_BLOCK|logic_unit|XORgate|oX[2]~2_combout $end
$var wire 1 A! ALU_BLOCK|logic_unit|oX[2]~5_combout $end
$var wire 1 B! ALU_BLOCK|logic_unit|oX[2]~6_combout $end
$var wire 1 C! ALU_BLOCK|arith_unit|bit16Adder|forlooping[2].Fulladder|Halfadder_1|oSum~combout $end
$var wire 1 D! ALU_BLOCK|arith_unit|bit16subtracter|forlooping[1].Fullsubtracter|OR_0~combout $end
$var wire 1 E! ALU_BLOCK|arith_unit|bit16subtracter|forlooping[2].Fullsubtracter|Halfsubtracter|oDiff~combout $end
$var wire 1 F! ALU_BLOCK|arith_unit|oAccumulator[2]~13_combout $end
$var wire 1 G! ALU_BLOCK|oAccumulator[2]~2_combout $end
$var wire 1 H! REGB_BLOCK|oQ~17_combout $end
$var wire 1 I! ALU_BLOCK|logic_unit|oX[3]~7_combout $end
$var wire 1 J! ALU_BLOCK|logic_unit|XORgate|oX[3]~3_combout $end
$var wire 1 K! ALU_BLOCK|logic_unit|oX[3]~8_combout $end
$var wire 1 L! ALU_BLOCK|arith_unit|bit16subtracter|forlooping[2].Fullsubtracter|OR_0~combout $end
$var wire 1 M! ALU_BLOCK|arith_unit|bit16subtracter|forlooping[3].Fullsubtracter|Halfsubtracter|oDiff~combout $end
$var wire 1 N! ALU_BLOCK|arith_unit|bit16Adder|forlooping[3].Fulladder|Halfadder_1|oSum~combout $end
$var wire 1 O! ALU_BLOCK|arith_unit|oAccumulator[15]~14_combout $end
$var wire 1 P! ALU_BLOCK|arith_unit|oAccumulator[3]~15_combout $end
$var wire 1 Q! ALU_BLOCK|oAccumulator[3]~3_combout $end
$var wire 1 R! ALU_BLOCK|logic_unit|XORgate|oX[4]~4_combout $end
$var wire 1 S! ALU_BLOCK|arith_unit|bit16subtracter|forlooping[4].Fullsubtracter|Halfadder|oSum~combout $end
$var wire 1 T! ALU_BLOCK|arith_unit|oAccumulator[4]~16_combout $end
$var wire 1 U! ALU_BLOCK|arith_unit|oAccumulator[4]~17_combout $end
$var wire 1 V! ALU_BLOCK|logic_unit|oX[4]~9_combout $end
$var wire 1 W! ALU_BLOCK|logic_unit|oX[4]~10_combout $end
$var wire 1 X! ALU_BLOCK|oAccumulator[4]~4_combout $end
$var wire 1 Y! ALU_BLOCK|logic_unit|oX[5]~11_combout $end
$var wire 1 Z! ALU_BLOCK|logic_unit|XORgate|oX[5]~5_combout $end
$var wire 1 [! ALU_BLOCK|logic_unit|oX[5]~12_combout $end
$var wire 1 \! ALU_BLOCK|arith_unit|oAccumulator[5]~18_combout $end
$var wire 1 ]! ALU_BLOCK|arith_unit|oAccumulator[5]~19_combout $end
$var wire 1 ^! ALU_BLOCK|oAccumulator[5]~5_combout $end
$var wire 1 _! ALU_BLOCK|logic_unit|XORgate|oX[6]~6_combout $end
$var wire 1 `! ALU_BLOCK|logic_unit|oX[6]~13_combout $end
$var wire 1 a! ALU_BLOCK|logic_unit|oX[6]~14_combout $end
$var wire 1 b! ALU_BLOCK|arith_unit|oAccumulator[6]~20_combout $end
$var wire 1 c! ALU_BLOCK|arith_unit|oAccumulator[6]~21_combout $end
$var wire 1 d! ALU_BLOCK|oAccumulator[6]~6_combout $end
$var wire 1 e! ALU_BLOCK|logic_unit|XORgate|oX[7]~7_combout $end
$var wire 1 f! ALU_BLOCK|arith_unit|bit16subtracter|forlooping[4].Fullsubtracter|OR_0~0_combout $end
$var wire 1 g! ALU_BLOCK|arith_unit|bit16subtracter|forlooping[4].Fullsubtracter|OR_0~combout $end
$var wire 1 h! ALU_BLOCK|arith_unit|bit16subtracter|forlooping[5].Fullsubtracter|OR_0~combout $end
$var wire 1 i! ALU_BLOCK|arith_unit|bit16subtracter|forlooping[6].Fullsubtracter|OR_0~combout $end
$var wire 1 j! ALU_BLOCK|arith_unit|oAccumulator[7]~22_combout $end
$var wire 1 k! ALU_BLOCK|arith_unit|oAccumulator[7]~23_combout $end
$var wire 1 l! ALU_BLOCK|logic_unit|oX[7]~15_combout $end
$var wire 1 m! ALU_BLOCK|logic_unit|oX[7]~16_combout $end
$var wire 1 n! ALU_BLOCK|oAccumulator[7]~7_combout $end
$var wire 1 o! ALU_BLOCK|logic_unit|XORgate|oX[8]~8_combout $end
$var wire 1 p! ALU_BLOCK|logic_unit|oX[8]~17_combout $end
$var wire 1 q! ALU_BLOCK|logic_unit|oX[8]~18_combout $end
$var wire 1 r! ALU_BLOCK|arith_unit|bit16Adder|forlooping[8].Fulladder|Halfadder_1|oSum~combout $end
$var wire 1 s! ALU_BLOCK|arith_unit|bit16subtracter|forlooping[7].Fullsubtracter|OR_0~combout $end
$var wire 1 t! ALU_BLOCK|arith_unit|oAccumulator[8]~24_combout $end
$var wire 1 u! ALU_BLOCK|arith_unit|oAccumulator[8]~35_combout $end
$var wire 1 v! ALU_BLOCK|oAccumulator[8]~8_combout $end
$var wire 1 w! ALU_BLOCK|logic_unit|oX[9]~19_combout $end
$var wire 1 x! ALU_BLOCK|logic_unit|XORgate|oX[9]~9_combout $end
$var wire 1 y! ALU_BLOCK|logic_unit|oX[9]~20_combout $end
$var wire 1 z! ALU_BLOCK|arith_unit|bit16Adder|forlooping[9].Fulladder|Halfadder_1|oSum~combout $end
$var wire 1 {! ALU_BLOCK|arith_unit|bit16subtracter|forlooping[8].Fullsubtracter|OR_0~combout $end
$var wire 1 |! ALU_BLOCK|arith_unit|oAccumulator[9]~25_combout $end
$var wire 1 }! ALU_BLOCK|arith_unit|oAccumulator[9]~36_combout $end
$var wire 1 ~! ALU_BLOCK|oAccumulator[9]~9_combout $end
$var wire 1 !" REGA_BLOCK|oQ~10_combout $end
$var wire 1 "" ALU_BLOCK|logic_unit|XORgate|oX[10]~10_combout $end
$var wire 1 #" ALU_BLOCK|arith_unit|bit16subtracter|forlooping[9].Fullsubtracter|OR_0~combout $end
$var wire 1 $" ALU_BLOCK|arith_unit|oAccumulator[10]~26_combout $end
$var wire 1 %" ALU_BLOCK|arith_unit|oAccumulator[10]~27_combout $end
$var wire 1 &" ALU_BLOCK|logic_unit|oX[10]~21_combout $end
$var wire 1 '" ALU_BLOCK|logic_unit|oX[10]~22_combout $end
$var wire 1 (" ALU_BLOCK|oAccumulator[10]~10_combout $end
$var wire 1 )" ALU_BLOCK|logic_unit|XORgate|oX[11]~11_combout $end
$var wire 1 *" ALU_BLOCK|arith_unit|bit16subtracter|forlooping[10].Fullsubtracter|OR_0~combout $end
$var wire 1 +" ALU_BLOCK|arith_unit|oAccumulator[11]~28_combout $end
$var wire 1 ," ALU_BLOCK|arith_unit|oAccumulator[11]~29_combout $end
$var wire 1 -" ALU_BLOCK|logic_unit|oX[11]~23_combout $end
$var wire 1 ." ALU_BLOCK|logic_unit|oX[11]~24_combout $end
$var wire 1 /" ALU_BLOCK|oAccumulator[11]~11_combout $end
$var wire 1 0" ALU_BLOCK|logic_unit|XORgate|oX[12]~12_combout $end
$var wire 1 1" ALU_BLOCK|arith_unit|bit16Adder|forlooping[12].Fulladder|Halfadder_1|oSum~combout $end
$var wire 1 2" ALU_BLOCK|arith_unit|bit16subtracter|forlooping[11].Fullsubtracter|OR_0~combout $end
$var wire 1 3" ALU_BLOCK|arith_unit|oAccumulator[12]~30_combout $end
$var wire 1 4" ALU_BLOCK|arith_unit|oAccumulator[12]~37_combout $end
$var wire 1 5" ALU_BLOCK|logic_unit|oX[12]~25_combout $end
$var wire 1 6" ALU_BLOCK|logic_unit|oX[12]~26_combout $end
$var wire 1 7" ALU_BLOCK|oAccumulator[12]~12_combout $end
$var wire 1 8" REGB_BLOCK|oQ~7_combout $end
$var wire 1 9" ALU_BLOCK|logic_unit|XORgate|oX[13]~13_combout $end
$var wire 1 :" ALU_BLOCK|logic_unit|oX[13]~28_combout $end
$var wire 1 ;" ALU_BLOCK|arith_unit|bit16subtracter|forlooping[13].Fullsubtracter|Halfadder|oSum~combout $end
$var wire 1 <" ALU_BLOCK|arith_unit|oAccumulator[13]~31_combout $end
$var wire 1 =" ALU_BLOCK|arith_unit|oAccumulator[13]~32_combout $end
$var wire 1 >" ALU_BLOCK|oAccumulator[13]~13_combout $end
$var wire 1 ?" REGA_BLOCK|oQ~6_combout $end
$var wire 1 @" ALU_BLOCK|arith_unit|oAccumulator[14]~38_combout $end
$var wire 1 A" ALU_BLOCK|arith_unit|bit16subtracter|forlooping[12].Fullsubtracter|OR_0~combout $end
$var wire 1 B" ALU_BLOCK|arith_unit|bit16subtracter|forlooping[14].Fullsubtracter|Halfadder|oSum~combout $end
$var wire 1 C" ALU_BLOCK|arith_unit|oAccumulator[14]~33_combout $end
$var wire 1 D" ALU_BLOCK|logic_unit|oX[14]~29_combout $end
$var wire 1 E" ALU_BLOCK|logic_unit|XORgate|oX[14]~14_combout $end
$var wire 1 F" ALU_BLOCK|logic_unit|oX[14]~30_combout $end
$var wire 1 G" ALU_BLOCK|oAccumulator[14]~14_combout $end
$var wire 1 H" ALU_BLOCK|logic_unit|oX[15]~31_combout $end
$var wire 1 I" ALU_BLOCK|logic_unit|XORgate|oX[15]~15_combout $end
$var wire 1 J" ALU_BLOCK|logic_unit|oX[15]~32_combout $end
$var wire 1 K" ALU_BLOCK|arith_unit|bit16Adder|forlooping[15].Fulladder|Halfadder_1|oSum~combout $end
$var wire 1 L" ALU_BLOCK|arith_unit|bit16subtracter|forlooping[15].Fullsubtracter|Halfsubtracter|oDiff~0_combout $end
$var wire 1 M" ALU_BLOCK|arith_unit|bit16subtracter|forlooping[15].Fullsubtracter|Halfsubtracter|oDiff~1_combout $end
$var wire 1 N" ALU_BLOCK|arith_unit|oAccumulator[15]~34_combout $end
$var wire 1 O" ALU_BLOCK|oAccumulator[15]~15_combout $end
$var wire 1 P" iClock~combout $end
$var wire 1 Q" iClock~clkctrl_outclk $end
$var wire 1 R" ALU_BLOCK|nZeroflagin~3_combout $end
$var wire 1 S" ALU_BLOCK|nZeroflagin~4_combout $end
$var wire 1 T" ALU_BLOCK|nZeroflagin~1_combout $end
$var wire 1 U" ALU_BLOCK|nZeroflagin~2_combout $end
$var wire 1 V" ALU_BLOCK|nZeroflagin~5_combout $end
$var wire 1 W" ALU_BLOCK|nZeroflagin~8_combout $end
$var wire 1 X" ALU_BLOCK|nZeroflagin~9_combout $end
$var wire 1 Y" ALU_BLOCK|nZeroflagin~10_combout $end
$var wire 1 Z" ALU_BLOCK|nZeroflagin~11_combout $end
$var wire 1 [" ALU_BLOCK|Zeroflag|oQ~regout $end
$var wire 1 \" iRegBCommand~combout [2] $end
$var wire 1 ]" iRegBCommand~combout [1] $end
$var wire 1 ^" iRegBCommand~combout [0] $end
$var wire 1 _" iB~combout [15] $end
$var wire 1 `" iB~combout [14] $end
$var wire 1 a" iB~combout [13] $end
$var wire 1 b" iB~combout [12] $end
$var wire 1 c" iB~combout [11] $end
$var wire 1 d" iB~combout [10] $end
$var wire 1 e" iB~combout [9] $end
$var wire 1 f" iB~combout [8] $end
$var wire 1 g" iB~combout [7] $end
$var wire 1 h" iB~combout [6] $end
$var wire 1 i" iB~combout [5] $end
$var wire 1 j" iB~combout [4] $end
$var wire 1 k" iB~combout [3] $end
$var wire 1 l" iB~combout [2] $end
$var wire 1 m" iB~combout [1] $end
$var wire 1 n" iB~combout [0] $end
$var wire 1 o" iA~combout [15] $end
$var wire 1 p" iA~combout [14] $end
$var wire 1 q" iA~combout [13] $end
$var wire 1 r" iA~combout [12] $end
$var wire 1 s" iA~combout [11] $end
$var wire 1 t" iA~combout [10] $end
$var wire 1 u" iA~combout [9] $end
$var wire 1 v" iA~combout [8] $end
$var wire 1 w" iA~combout [7] $end
$var wire 1 x" iA~combout [6] $end
$var wire 1 y" iA~combout [5] $end
$var wire 1 z" iA~combout [4] $end
$var wire 1 {" iA~combout [3] $end
$var wire 1 |" iA~combout [2] $end
$var wire 1 }" iA~combout [1] $end
$var wire 1 ~" iA~combout [0] $end
$var wire 1 !# REGB_BLOCK|oQ [15] $end
$var wire 1 "# REGB_BLOCK|oQ [14] $end
$var wire 1 ## REGB_BLOCK|oQ [13] $end
$var wire 1 $# REGB_BLOCK|oQ [12] $end
$var wire 1 %# REGB_BLOCK|oQ [11] $end
$var wire 1 &# REGB_BLOCK|oQ [10] $end
$var wire 1 '# REGB_BLOCK|oQ [9] $end
$var wire 1 (# REGB_BLOCK|oQ [8] $end
$var wire 1 )# REGB_BLOCK|oQ [7] $end
$var wire 1 *# REGB_BLOCK|oQ [6] $end
$var wire 1 +# REGB_BLOCK|oQ [5] $end
$var wire 1 ,# REGB_BLOCK|oQ [4] $end
$var wire 1 -# REGB_BLOCK|oQ [3] $end
$var wire 1 .# REGB_BLOCK|oQ [2] $end
$var wire 1 /# REGB_BLOCK|oQ [1] $end
$var wire 1 0# REGB_BLOCK|oQ [0] $end
$var wire 1 1# iAluOpcode~combout [2] $end
$var wire 1 2# iAluOpcode~combout [1] $end
$var wire 1 3# iAluOpcode~combout [0] $end
$var wire 1 4# iRegACommand~combout [2] $end
$var wire 1 5# iRegACommand~combout [1] $end
$var wire 1 6# iRegACommand~combout [0] $end
$var wire 1 7# REGA_BLOCK|oQ [15] $end
$var wire 1 8# REGA_BLOCK|oQ [14] $end
$var wire 1 9# REGA_BLOCK|oQ [13] $end
$var wire 1 :# REGA_BLOCK|oQ [12] $end
$var wire 1 ;# REGA_BLOCK|oQ [11] $end
$var wire 1 <# REGA_BLOCK|oQ [10] $end
$var wire 1 =# REGA_BLOCK|oQ [9] $end
$var wire 1 ># REGA_BLOCK|oQ [8] $end
$var wire 1 ?# REGA_BLOCK|oQ [7] $end
$var wire 1 @# REGA_BLOCK|oQ [6] $end
$var wire 1 A# REGA_BLOCK|oQ [5] $end
$var wire 1 B# REGA_BLOCK|oQ [4] $end
$var wire 1 C# REGA_BLOCK|oQ [3] $end
$var wire 1 D# REGA_BLOCK|oQ [2] $end
$var wire 1 E# REGA_BLOCK|oQ [1] $end
$var wire 1 F# REGA_BLOCK|oQ [0] $end
$upscope $end
$upscope $end
$enddefinitions $end
#0
$dumpvars
b1100001010010 !
b111 "
b1100000000010000 #
0$
b1 %
b100 &
0'
0(
08
07
06
05
04
03
02
01
00
0/
0.
0-
0,
0+
0*
0)
x9
0:
1;
x<
1=
1>
1?
0@
0A
0B
0C
0D
0E
0F
1G
1H
0I
0J
1K
0L
1M
0N
1O
0P
0Q
0R
0S
0T
0U
0V
0W
0X
0Y
1Z
0[
0\
0]
1^
0_
0`
0a
0b
0c
0d
0e
0f
1g
0h
0i
0j
0k
0l
0m
0n
0o
0p
0q
0r
0s
0t
0u
0v
1w
0x
0y
1z
1{
1|
0}
0~
1!!
0"!
1#!
0$!
1%!
0&!
1'!
0(!
1)!
0*!
1+!
0,!
1-!
0.!
0/!
00!
01!
02!
03!
04!
05!
06!
17!
08!
09!
0:!
0;!
0<!
0=!
0>!
0?!
0@!
0A!
0B!
0C!
0D!
0E!
0F!
0G!
1H!
0I!
0J!
0K!
0L!
0M!
0N!
1O!
0P!
0Q!
0R!
0S!
0T!
0U!
0V!
0W!
0X!
0Y!
0Z!
0[!
0\!
0]!
0^!
0_!
0`!
0a!
0b!
0c!
0d!
0e!
0f!
0g!
0h!
0i!
0j!
0k!
0l!
0m!
0n!
0o!
0p!
0q!
0r!
0s!
0t!
0u!
0v!
0w!
0x!
0y!
0z!
0{!
0|!
0}!
0~!
0!"
0""
0#"
0$"
0%"
0&"
0'"
0("
0)"
0*"
0+"
0,"
0-"
0."
0/"
00"
01"
02"
03"
04"
05"
06"
07"
18"
09"
0:"
0;"
0<"
0="
0>"
0?"
0@"
0A"
0B"
0C"
0D"
0E"
0F"
0G"
0H"
0I"
0J"
0K"
0L"
0M"
0N"
0O"
0P"
0Q"
1R"
1S"
1T"
0U"
0V"
1W"
1X"
1Y"
1Z"
0["
0^"
0]"
1\"
0n"
0m"
0l"
0k"
1j"
0i"
0h"
0g"
0f"
0e"
0d"
0c"
0b"
0a"
1`"
1_"
0~"
1}"
0|"
0{"
1z"
0y"
1x"
0w"
0v"
0u"
0t"
1s"
1r"
0q"
0p"
0o"
00#
0/#
0.#
0-#
0,#
0+#
0*#
0)#
0(#
0'#
0&#
0%#
0$#
0##
0"#
0!#
13#
12#
11#
16#
05#
04#
0F#
0E#
0D#
0C#
0B#
0A#
0@#
0?#
0>#
0=#
0<#
0;#
0:#
09#
08#
07#
$end
#5000
1$
1P"
1Q"
09
1["
1,#
1?#
1!#
1D#
1A#
19#
1:#
1"#
1g!
1S!
1R!
1$!
1j!
1e!
1I"
1/!
1E!
1@!
1a
1\!
1Z!
1B"
1="
19"
13"
10"
1C
1M"
1E"
1.!
1(
0\!
1k!
0M"
1K"
0O!
1C!
1]!
1C"
0Y"
1>"
14"
11"
1N"
0]!
0W"
1n!
0N"
0C"
0="
03"
0j!
1^!
0H
0Z"
1G"
17"
1O"
1+
0^!
1H
0X"
0O"
0G"
0>"
04"
0k!
11
13
1*
1,
1)
1W"
07"
0n!
03
0)
0*
0+
1X"
0,
01
1Y"
1Z"
#10000
0$
0P"
0Q"
19
#15000
1$
1P"
1Q"
09
#20000
0$
0P"
0Q"
19
#25000
1$
1P"
1Q"
09
#30000
0$
0P"
0Q"
19
#35000
1$
1P"
1Q"
09
#40000
0$
0P"
0Q"
19
#45000
1$
1P"
1Q"
09
#50000
0$
0P"
0Q"
19
#55000
1$
1P"
1Q"
09
#60000
0$
0P"
0Q"
19
#65000
1$
1P"
1Q"
09
#70000
0$
0P"
0Q"
19
#75000
1$
1P"
1Q"
09
#80000
0$
0P"
0Q"
19
#85000
1$
1P"
1Q"
09
#90000
0$
0P"
0Q"
19
#95000
1$
1P"
1Q"
09
#100000
b1001100001010010 !
b1011100001010010 !
b1010100001010010 !
b1010101001010010 !
b1010101101010010 !
b1010101111010010 !
b1010101110010010 !
b1010101110010110 !
b1101000000010000 #
b1101100000010000 #
b1101110000010000 #
b1101111000010000 #
b1101111100010000 #
b1101111100000000 #
b1101111100000100 #
b1101111100000101 #
b101 %
b100 %
b110 &
0$
1]"
06#
14#
1n"
1l"
0j"
1f"
1e"
1d"
1c"
1b"
1|"
0x"
1w"
1v"
1u"
0r"
1q"
1o"
0P"
0Q"
19
1?"
1!"
19!
0^
1\
0Z
1W
1U
0O
0g
1J
1I
1d
1b
1`
1E
0H!
1n
1S
1T
1Q
1P
1c
#105000
1$
1P"
1Q"
09
1E#
0,#
1;#
10#
1.#
1B#
0A#
1>#
1(#
1'#
1=#
1&#
1%#
0:#
1$#
17#
1=!
0g!
0S!
0$!
01"
1-"
1s
10!
1~
0E!
1A!
0@!
1_
1h!
0Z!
0%!
1p!
1V
1A
1w!
1p
1*"
1""
1*!
1A"
1;"
1,!
0I"
1H"
1v
0h!
1%!
1t
0C!
1N!
1i!
1&!
1z!
1q
12"
0+!
1M"
0K"
0i!
0&!
1K"
1u
#110000
0$
0P"
0Q"
19
#115000
1$
1P"
1Q"
09
#120000
0$
0P"
0Q"
19
#125000
1$
1P"
1Q"
09
#130000
0$
0P"
0Q"
19
#135000
1$
1P"
1Q"
09
#140000
0$
0P"
0Q"
19
#145000
1$
1P"
1Q"
09
#150000
0$
0P"
0Q"
19
#155000
1$
1P"
1Q"
09
#160000
0$
0P"
0Q"
19
#165000
1$
1P"
1Q"
09
#170000
0$
0P"
0Q"
19
#175000
1$
1P"
1Q"
09
#180000
0$
0P"
0Q"
19
#185000
1$
1P"
1Q"
09
#190000
0$
0P"
0Q"
19
#195000
1$
1P"
1Q"
09
#200000
b1110101110010110 !
b1110001110010110 !
b1110011110010110 !
b1110011110110110 !
b1110011110100110 !
b1110011110100100 !
b1110011110100101 !
b101111100000101 #
b101111110000101 #
b101111110100101 #
b10 &
b1111011110100101 !
b1111010110100101 !
b1111010010100101 !
b1111010010100001 !
b100111110100101 #
b100111110110101 #
b100111110110100 #
b101 %
b0 &
0$
16#
0]"
0\"
0n"
1j"
1i"
1g"
0b"
0_"
1~"
0}"
0|"
0z"
1y"
0v"
0u"
1t"
0s"
1r"
1p"
0P"
0Q"
19
0!"
0|
1r
0\
1O
0M
0{
0d
0b
0E
1H!
1}
1X
0P
0K
1g
1e
1D
0c
1f
